{
  "ConnectionStrings": {
    // "DefaultConnection": "Server=.;Database=AlogentDigital;User Id=AlogentDigital;Password=Al0g3nt!",
    // "DefaultConnection": "Server=.;User Id=sa; Password=reallyStrongPwd123;",
    // "DefaultConnection": "Server=.\\SQLExpress;Database=AlogentDigital;Trusted_Connection=True;",
    "DefaultConnection": "Server=hnvdev-digital.alogent.com;Database=ProjectNXT_QA;User Id=Alogent; Password=Alogent;",
    "CoreMiddleware": "https://74.200.60.131:8620/SymXchange/"
  },
  "SymXchange": {
    "ProcessorUser": 0,
    "User": "ALOGENT",
    "Password": "!99ALOGENT",
    "DeviceNumber": 20620,
    "DeviceType": "ALOGENT",
    "CardPrefix": "4040", // THIS IS NOT CURRENTLY SET AS A DEFAULT
    "BypassCertificateCheck": true
  },
  "modules": [
    { "type": "Alogent.Digital.Core.SymXchange.SymXchangeBase, Alogent.Digital.Server" }
  ],
   //"DbInitializationScriptsDirectory": [
   //  "../Alogent.Digital.Data.Initialization/Seed",
   //  "../Alogent.Digital.Data.Initialization/Seed/06_Roles/Admin",
   //  "../Alogent.Digital.Data.Initialization/Seed/06_Roles/User",
   //  "../Alogent.Digital.Data.Initialization/Seed/06_Roles/User/DefaultAllowAll",
   //  "../Alogent.Digital.Data.Initialization/Seed/07_Products",
   //  "../Alogent.Digital.Data.Initialization/Developer"
   //],
  "Serilog": {
    "Application": "Alogent.Digital.Web",
    "MinimumLevel": "Debug",
    "WriteToConsole": true,
    "WriteToSqlServer": false
  },
  "EnableProfiler": false,
  "DisableCookieAuthentication": true,
  "FeatureManagement": {
    "Jobs": true,
    "LoginOtp": true,
    "LoginOtpWeb": true,
    "LoginOtpMobile": true,
    "RegistrationOtp": true,
    "ForgotResetOtp": true,
    "AccountLockedOtp": true,
    "Alerts": false
  },
  "DataProtection": {
    "KeyStore": "",
    "CertificateThumbprint": "",
    "Purpose": "Alogent"
  },
  "Jobs": [],
  "FeatureDefinitionFile": "",
  "EnableAlerts": false,
  "BusSettings": {
    "Host": "localhost",
    "VirtualHost": "/",
    "Port": 5672,
    "User": "",
    "Password": ""
  },
  "ASPNETCORE_ENVIRONMENT": "Development",
  "ALOGENT_DATA_KEY": "KgEPNBGmjgPUa7Lp7fjrFA==",
  "ALOGENT_JWT_SIGNINGKEY": "KgEPNBGmjgPUa7Lp7fjrFA==",
  "DATA_KEY": "KgEPNBGmjgPUa7Lp7fjrFA==",
  "JWT_SIGNINGKEY": "KgEPNBGmjgPUa7Lp7fjrFA=="
}